<?xml version="1.0" encoding="UTF-8" standalone="no"?>
<svg
   xmlns:dc="http://purl.org/dc/elements/1.1/"
   xmlns:cc="http://creativecommons.org/ns#"
   xmlns:rdf="http://www.w3.org/1999/02/22-rdf-syntax-ns#"
   xmlns:svg="http://www.w3.org/2000/svg"
   xmlns="http://www.w3.org/2000/svg"
   xmlns:sodipodi="http://sodipodi.sourceforge.net/DTD/sodipodi-0.dtd"
   xmlns:inkscape="http://www.inkscape.org/namespaces/inkscape"
   inkscape:version="1.0 (4035a4f, 2020-05-01)"
   sodipodi:docname="liked.svg"
   id="svg90"
   version="1.1"
   y="0px"
   x="0px"
   viewBox="0 0 100 100">
  <metadata
     id="metadata96">
    <rdf:RDF>
      <cc:Work
         rdf:about="">
        <dc:format>image/svg+xml</dc:format>
        <dc:type
           rdf:resource="http://purl.org/dc/dcmitype/StillImage" />
        <dc:title></dc:title>
      </cc:Work>
    </rdf:RDF>
  </metadata>
  <defs
     id="defs94" />
  <sodipodi:namedview
     inkscape:current-layer="svg90"
     inkscape:window-maximized="1"
     inkscape:window-y="23"
     inkscape:window-x="0"
     inkscape:cy="50"
     inkscape:cx="50"
     inkscape:zoom="7.66"
     showgrid="false"
     id="namedview92"
     inkscape:window-height="974"
     inkscape:window-width="1680"
     inkscape:pageshadow="2"
     inkscape:pageopacity="0"
     guidetolerance="10"
     gridtolerance="10"
     objecttolerance="10"
     borderopacity="1"
     bordercolor="#666666"
     pagecolor="#ffffff" />
  <path
     style="fill:#000000"
     sodipodi:nodetypes="cccccccccccc"
     d="M 97.990762,26.347472 C 95.540033,18.734669 89.95095,12.533154 82.633024,9.306887 74.346068,5.658363 65.77628,6.690698 57.814579,12.31904 54.889114,14.418495 52.258845,16.901317 49.994294,19.700936 47.729743,16.901317 45.099474,14.418495 42.174009,12.31904 34.22645,6.662414 25.642521,5.644222 17.355564,9.292745 10.049393,12.498824 4.4611057,18.673726 1.997826,26.262622 -0.64610602,34.250013 0.21178789,42.983066 4.359467,50.303281 11.430249,62.77614 25.670804,76.733864 46.784159,91.79463 c 1.966823,1.404917 4.609004,1.404917 6.575827,0 C 74.37435,76.762147 88.614905,62.804424 95.699829,50.317423 99.803416,43.006098 100.63515,34.303736 97.990762,26.347472 Z"
     id="svg_1"
     stroke="null" />
</svg>
