<svg xmlns="http://www.w3.org/2000/svg" y="0px" x="0px" viewBox="0 0 48 48">
    <g>
        <g stroke="null" id="svg_7">
            <path stroke-linejoin="round" stroke-linecap="round" stroke-width="2px" fill="none" id="svg_5" d="m24.000001,5.360796a20.586514,20.586514 0 1 1 -20.586514,20.586514" class="cls-1" />
            <polyline stroke-linejoin="round" stroke-linecap="round" stroke-width="2px" fill="none" id="svg_6" points="27.269411087036133,9.491644620895386 23.206283569335938,5.428515195846558 27.168617248535156,1.4661788940429688 " class="cls-1" />
        </g>
        <text transform="matrix(0.8213438987731932,0,0,0.8213438987731932,2.0377961546182632,4.2749142572283745) " xml:space="preserve" text-anchor="start" font-family="'Trebuchet MS', Gadget, sans-serif" font-size="24" id="svg_7" y="34.857734" x="13.010594" fill-opacity="null" stroke-opacity="null" stroke-width="0">10</text>
    </g>
</svg>