<?xml version="1.0" encoding="UTF-8" standalone="no"?>
<svg
   xmlns:dc="http://purl.org/dc/elements/1.1/"
   xmlns:cc="http://creativecommons.org/ns#"
   xmlns:rdf="http://www.w3.org/1999/02/22-rdf-syntax-ns#"
   xmlns:svg="http://www.w3.org/2000/svg"
   xmlns="http://www.w3.org/2000/svg"
   xmlns:sodipodi="http://sodipodi.sourceforge.net/DTD/sodipodi-0.dtd"
   xmlns:inkscape="http://www.inkscape.org/namespaces/inkscape"
   sodipodi:docname="error.svg"
   inkscape:version="1.0 (4035a4f, 2020-05-01)"
   id="svg8"
   version="1.1"
   viewBox="0 0 123.825 123.825"
   height="123.825mm"
   width="123.825mm">
  <defs
     id="defs2" />
  <sodipodi:namedview
     inkscape:window-maximized="1"
     inkscape:window-y="23"
     inkscape:window-x="0"
     inkscape:window-height="980"
     inkscape:window-width="1680"
     showgrid="false"
     inkscape:document-rotation="0"
     inkscape:current-layer="layer1"
     inkscape:document-units="mm"
     inkscape:cy="245.91882"
     inkscape:cx="239.86898"
     inkscape:zoom="1.3116505"
     inkscape:pageshadow="2"
     inkscape:pageopacity="0.0"
     borderopacity="1.0"
     bordercolor="#666666"
     pagecolor="#ffffff"
     id="base" />
  <metadata
     id="metadata5">
    <rdf:RDF>
      <cc:Work
         rdf:about="">
        <dc:format>image/svg+xml</dc:format>
        <dc:type
           rdf:resource="http://purl.org/dc/dcmitype/StillImage" />
        <dc:title></dc:title>
      </cc:Work>
    </rdf:RDF>
  </metadata>
  <g
     transform="translate(-52.273718,-95.507274)"
     id="layer1"
     inkscape:groupmode="layer"
     inkscape:label="Layer 1">
    <g
       transform="matrix(0.26458333,0,0,0.26458333,46.452885,89.686441)"
       id="g24">
      <g
         id="g22">
        <g
           id="g12">
          <path
             id="path10"
             d="M 256,490 C 193.497,490 134.734,465.66 90.537,421.463 46.34,377.268 22,318.504 22,256 22,193.497 46.34,134.734 90.537,90.537 134.734,46.34 193.497,22 256,22 318.504,22 377.267,46.34 421.463,90.537 465.66,134.734 490,193.497 490,256 490,318.504 465.66,377.268 421.463,421.463 377.267,465.66 318.504,490 256,490 Z M 256,30 C 131.383,30 30,131.383 30,256 30,380.617 131.383,482 256,482 380.617,482 482,380.617 482,256 482,131.383 380.617,30 256,30 Z" />
        </g>
        <g
           id="g16">
          <path
             id="path14"
             d="m 171.147,344.854 c -1.024,0 -2.047,-0.391 -2.829,-1.172 -1.562,-1.562 -1.562,-4.095 0,-5.656 L 338.025,168.319 c 1.561,-1.562 4.094,-1.562 5.654,0 1.563,1.563 1.563,4.095 0,5.657 L 173.976,343.682 c -0.782,0.781 -1.805,1.172 -2.829,1.172 z" />
        </g>
        <g
           id="g20">
          <path
             id="path18"
             d="m 340.852,344.854 c -1.021,0 -2.047,-0.391 -2.826,-1.172 L 168.318,173.976 c -1.562,-1.563 -1.562,-4.095 0,-5.657 1.563,-1.562 4.096,-1.561 5.657,0 L 343.68,338.025 c 1.563,1.562 1.563,4.095 0,5.656 -0.781,0.782 -1.805,1.173 -2.828,1.173 z" />
        </g>
      </g>
    </g>
  </g>
</svg>
