<svg xmlns="http://www.w3.org/2000/svg" y="0px" x="0px" viewBox="0 0 48 48">
    <g>
        <g stroke="null" id="svg_7">
            <path stroke-linejoin="round" stroke-linecap="round" stroke-width="2px" fill="none" id="svg_2" d="m23.999999,5.317888a20.699474,20.699474 0 1 0 20.699474,20.699474" class="cls-2" />
            <polyline stroke-linejoin="round" stroke-linecap="round" stroke-width="2px" fill="none" id="svg_3" points="20.70633029937744,9.352670669555664 24.798090934753418,5.267245769500732 20.81400966644287,1.28316330909729 " class="cls-2" />
        </g>
        <text transform="matrix(0.8184494931339729,0,0,0.8184494931339729,2.147487283540433,6.798256932448123) " xml:space="preserve" text-anchor="start" font-family="'Trebuchet MS', Gadget, sans-serif" font-size="24" id="svg_8" y="31.880313" x="13.192849" fill-opacity="null" stroke-opacity="null" stroke-width="0">30</text>
    </g>
</svg>