<?xml version="1.0" encoding="UTF-8" standalone="no"?>
<svg
   xmlns:dc="http://purl.org/dc/elements/1.1/"
   xmlns:cc="http://creativecommons.org/ns#"
   xmlns:rdf="http://www.w3.org/1999/02/22-rdf-syntax-ns#"
   xmlns:svg="http://www.w3.org/2000/svg"
   xmlns="http://www.w3.org/2000/svg"
   xmlns:sodipodi="http://sodipodi.sourceforge.net/DTD/sodipodi-0.dtd"
   xmlns:inkscape="http://www.inkscape.org/namespaces/inkscape"
   sodipodi:docname="warn.svg"
   inkscape:version="1.0 (4035a4f, 2020-05-01)"
   id="svg84"
   version="1.1"
   viewBox="0 0 123 123"
   height="123mm"
   width="123mm">
  <defs
     id="defs78" />
  <sodipodi:namedview
     inkscape:window-maximized="0"
     inkscape:window-y="23"
     inkscape:window-x="0"
     inkscape:window-height="899"
     inkscape:window-width="1680"
     showgrid="false"
     inkscape:document-rotation="0"
     inkscape:current-layer="layer1"
     inkscape:document-units="mm"
     inkscape:cy="291.83177"
     inkscape:cx="203.0513"
     inkscape:zoom="0.71"
     inkscape:pageshadow="2"
     inkscape:pageopacity="0.0"
     borderopacity="1.0"
     bordercolor="#666666"
     pagecolor="#ffffff"
     id="base" />
  <metadata
     id="metadata81">
    <rdf:RDF>
      <cc:Work
         rdf:about="">
        <dc:format>image/svg+xml</dc:format>
        <dc:type
           rdf:resource="http://purl.org/dc/dcmitype/StillImage" />
        <dc:title></dc:title>
      </cc:Work>
    </rdf:RDF>
  </metadata>
  <g
     transform="translate(-52.854648,-139.52092)"
     id="layer1"
     inkscape:groupmode="layer"
     inkscape:label="Layer 1">
    <g
       transform="matrix(1.8636364,0,0,1.8636364,21.172829,107.8391)"
       id="g132">
      <path
         id="path126"
         d="M 50,17 C 31.8,17 17,31.8 17,50 17,68.2 31.8,83 50,83 68.2,83 83,68.2 83,50 83,31.8 68.2,17 50,17 Z m 0,64 C 32.9,81 19,67.1 19,50 19,32.9 32.9,19 50,19 67.1,19 81,32.9 81,50 81,67.1 67.1,81 50,81 Z" />
      <rect
         id="rect128"
         height="26.5"
         width="2.5"
         y="33.5"
         x="48.799999" />
      <rect
         id="rect130"
         height="3.5"
         width="2.5"
         y="63"
         x="48.799999" />
    </g>
  </g>
</svg>
